%YAML 1.1
%TAG !u! tag:unity3d.com,2011:
--- !u!114 &11400000
MonoBehaviour:
  m_ObjectHideFlags: 0
  m_CorrespondingSourceObject: {fileID: 0}
  m_PrefabInstance: {fileID: 0}
  m_PrefabAsset: {fileID: 0}
  m_GameObject: {fileID: 0}
  m_Enabled: 1
  m_EditorHideFlags: 0
  m_Script: {fileID: 11500000, guid: 7165678789325a1478460efe7cd4260e, type: 3}
  m_Name: KeyItems
  m_EditorClassIdentifier: 
  keyItemsList:
  - name: Cotton Dress
    description: Cotton-woven dress.
  - name: Satin Dress
    description: Dress made of satin.
  - name: Silk Dress
    description: Dress made of silk.
  - name: Wig
    description: Wig made from messed up hair.
  - name: Dyed Wig
    description: Wig made of hair dyed light brown.
  - name: Blonde Wig
    description: A blonde wig.
  - name: Glass Tiara
    description: A glass tiara.
  - name: Ruby Tiara
    description: A ruby tiara.
  - name: Diamond Tiara
    description: A diamond tiara.
  - name: Cologne
    description: ?????
  - name: Flower cologne
    description: ?????
  - name: Sexy Cologne
    description: ?????
  - name: Member's Card
    description: Membership card to the Honeybee Inn.
  - name: Bikini briefs
    description: Tight-fitting briefs.
  - name: Lingerie
    description: Perfumed underwear.
  - name: Pharmacy Coupons
    description: Can be exchanged for goods at the pharmacy.
  - name: Disinfectant
    description: A disinfectant.
  - name: Deodorant
    description: A deodorant.
  - name: Digestive
    description: A digestive.
  - name: Keycard 60
    description: Allows you to go as far as the 60th floor in the Shinra Bldg.
  - name: Keycard 62
    description: Allows you to go as far as the 62nd floor in the Shinra Bldg.
  - name: Keycard 65
    description: Allows you to go as far as the 65th floor in the Shinra Bldg.
  - name: A Coupon
    description: Can be exchanged for items.
  - name: B Coupon
    description: Can be exchanged for items.
  - name: C Coupon
    description: Can be exchanged for items.
  - name: Midgar parts|0
    description: Part of the Midgar city model.
  - name: Midgar parts|1
    description: Part of the Midgar city model.
  - name: Midgar parts|2
    description: Part of the Midgar city model.
  - name: Midgar parts|3
    description: Part of the Midgar city model.
  - name: Midgar parts|4
    description: Part of the Midgar city model.
  - name: Keycard 66
    description: Allows you to go as far as the 66th floor in the Shinra Bldg.
  - name: Keycard 68
    description: Allows you to go as far as the 68th floor in the Shinra Bldg.
  - name: Huge Materia|CorelReactor
    description: Materia you get at the Corel Reactor.
  - name: Huge Materia|CondorReactor
    description: Materia you get at the Fort Condor Reactor.
  - name: Huge Materia|UnderwaterReactor
    description: Materia you get at the Underwater Reactor.
  - name: Huge Materia|Rocket
    description: Materia you get from the rocket.
  - name: Key to Ancients
    description: An old key found in the ocean.
  - name: Lunar Harp
    description: An instrument used to wake the Sleeping Forest.
  - name: Basement Key
    description: Key to the basement room in the Shinra Mansion.
  - name: Key to Sector 5
    description: Opens the gate to Sector 5 in Midgar.
  - name: PHS
    description: Able to call your party members from long distance.
  - name: Gold Ticket
    description: Unlimited pass to the Gold Saucer.
  - name: Keystone
    description: Key to the Temple of the Ancients.
  - name: Leviathan Scales
    description: Scales with the power of water.
  - name: Glacier Map
    description: A map you can use on the Great Glacier.
  - name: Black Materia
    description: Black Materia
  - name: Mythril
    description: Might be some help to you...
  - name: Snowboard
    description: Allows you to slide over the snow.
  - name: Battery
    description: Looks like it can start some sort of machine.
