%YAML 1.1
%TAG !u! tag:unity3d.com,2011:
--- !u!1001 &7539126353757678171
PrefabInstance:
  m_ObjectHideFlags: 0
  serializedVersion: 2
  m_Modification:
    serializedVersion: 3
    m_TransformParent: {fileID: 0}
    m_Modifications:
    - target: {fileID: -9188482587537770548, guid: cfe992e4e630a984e8c5afd2e3b26f65,
        type: 3}
      propertyPath: m_Layer
      value: 3
      objectReference: {fileID: 0}
    - target: {fileID: -9010778251361305732, guid: cfe992e4e630a984e8c5afd2e3b26f65,
        type: 3}
      propertyPath: m_Layer
      value: 3
      objectReference: {fileID: 0}
    - target: {fileID: -8705941009479655589, guid: cfe992e4e630a984e8c5afd2e3b26f65,
        type: 3}
      propertyPath: m_Layer
      value: 3
      objectReference: {fileID: 0}
    - target: {fileID: -8679921383154817045, guid: cfe992e4e630a984e8c5afd2e3b26f65,
        type: 3}
      propertyPath: m_LocalPosition.x
      value: 1.86
      objectReference: {fileID: 0}
    - target: {fileID: -8679921383154817045, guid: cfe992e4e630a984e8c5afd2e3b26f65,
        type: 3}
      propertyPath: m_LocalPosition.y
      value: 0
      objectReference: {fileID: 0}
    - target: {fileID: -8679921383154817045, guid: cfe992e4e630a984e8c5afd2e3b26f65,
        type: 3}
      propertyPath: m_LocalPosition.z
      value: -8.563001
      objectReference: {fileID: 0}
    - target: {fileID: -8679921383154817045, guid: cfe992e4e630a984e8c5afd2e3b26f65,
        type: 3}
      propertyPath: m_LocalRotation.w
      value: 0.7071068
      objectReference: {fileID: 0}
    - target: {fileID: -8679921383154817045, guid: cfe992e4e630a984e8c5afd2e3b26f65,
        type: 3}
      propertyPath: m_LocalRotation.x
      value: 0
      objectReference: {fileID: 0}
    - target: {fileID: -8679921383154817045, guid: cfe992e4e630a984e8c5afd2e3b26f65,
        type: 3}
      propertyPath: m_LocalRotation.y
      value: -0.7071068
      objectReference: {fileID: 0}
    - target: {fileID: -8679921383154817045, guid: cfe992e4e630a984e8c5afd2e3b26f65,
        type: 3}
      propertyPath: m_LocalRotation.z
      value: 0
      objectReference: {fileID: 0}
    - target: {fileID: -8679921383154817045, guid: cfe992e4e630a984e8c5afd2e3b26f65,
        type: 3}
      propertyPath: m_LocalEulerAnglesHint.x
      value: 0
      objectReference: {fileID: 0}
    - target: {fileID: -8679921383154817045, guid: cfe992e4e630a984e8c5afd2e3b26f65,
        type: 3}
      propertyPath: m_LocalEulerAnglesHint.y
      value: -90
      objectReference: {fileID: 0}
    - target: {fileID: -8679921383154817045, guid: cfe992e4e630a984e8c5afd2e3b26f65,
        type: 3}
      propertyPath: m_LocalEulerAnglesHint.z
      value: 0
      objectReference: {fileID: 0}
    - target: {fileID: -8620061291980784375, guid: cfe992e4e630a984e8c5afd2e3b26f65,
        type: 3}
      propertyPath: m_Layer
      value: 3
      objectReference: {fileID: 0}
    - target: {fileID: -7391475362428380560, guid: cfe992e4e630a984e8c5afd2e3b26f65,
        type: 3}
      propertyPath: m_Layer
      value: 3
      objectReference: {fileID: 0}
    - target: {fileID: -6681873853799401062, guid: cfe992e4e630a984e8c5afd2e3b26f65,
        type: 3}
      propertyPath: m_Layer
      value: 3
      objectReference: {fileID: 0}
    - target: {fileID: -6477125650230942204, guid: cfe992e4e630a984e8c5afd2e3b26f65,
        type: 3}
      propertyPath: m_Layer
      value: 3
      objectReference: {fileID: 0}
    - target: {fileID: -6309171987837486268, guid: cfe992e4e630a984e8c5afd2e3b26f65,
        type: 3}
      propertyPath: m_Layer
      value: 3
      objectReference: {fileID: 0}
    - target: {fileID: -6135317982602161949, guid: cfe992e4e630a984e8c5afd2e3b26f65,
        type: 3}
      propertyPath: m_Layer
      value: 3
      objectReference: {fileID: 0}
    - target: {fileID: -5616551053512630319, guid: cfe992e4e630a984e8c5afd2e3b26f65,
        type: 3}
      propertyPath: m_Layer
      value: 3
      objectReference: {fileID: 0}
    - target: {fileID: -5151492872390713093, guid: cfe992e4e630a984e8c5afd2e3b26f65,
        type: 3}
      propertyPath: m_Layer
      value: 3
      objectReference: {fileID: 0}
    - target: {fileID: -4558814474122738789, guid: cfe992e4e630a984e8c5afd2e3b26f65,
        type: 3}
      propertyPath: m_Layer
      value: 3
      objectReference: {fileID: 0}
    - target: {fileID: -4447472987372433821, guid: cfe992e4e630a984e8c5afd2e3b26f65,
        type: 3}
      propertyPath: m_Layer
      value: 3
      objectReference: {fileID: 0}
    - target: {fileID: -4138165133057692197, guid: cfe992e4e630a984e8c5afd2e3b26f65,
        type: 3}
      propertyPath: m_Layer
      value: 3
      objectReference: {fileID: 0}
    - target: {fileID: -3866108858836256326, guid: cfe992e4e630a984e8c5afd2e3b26f65,
        type: 3}
      propertyPath: m_Layer
      value: 3
      objectReference: {fileID: 0}
    - target: {fileID: -3574227185728743805, guid: cfe992e4e630a984e8c5afd2e3b26f65,
        type: 3}
      propertyPath: m_Layer
      value: 3
      objectReference: {fileID: 0}
    - target: {fileID: -1923097943733288437, guid: cfe992e4e630a984e8c5afd2e3b26f65,
        type: 3}
      propertyPath: m_Layer
      value: 3
      objectReference: {fileID: 0}
    - target: {fileID: -1497686508589035081, guid: cfe992e4e630a984e8c5afd2e3b26f65,
        type: 3}
      propertyPath: m_Layer
      value: 3
      objectReference: {fileID: 0}
    - target: {fileID: -745213483101425600, guid: cfe992e4e630a984e8c5afd2e3b26f65,
        type: 3}
      propertyPath: m_Layer
      value: 3
      objectReference: {fileID: 0}
    - target: {fileID: -744436532182325293, guid: cfe992e4e630a984e8c5afd2e3b26f65,
        type: 3}
      propertyPath: m_Layer
      value: 3
      objectReference: {fileID: 0}
    - target: {fileID: -503975051339332266, guid: cfe992e4e630a984e8c5afd2e3b26f65,
        type: 3}
      propertyPath: m_Layer
      value: 3
      objectReference: {fileID: 0}
    - target: {fileID: 18450660132315513, guid: cfe992e4e630a984e8c5afd2e3b26f65,
        type: 3}
      propertyPath: m_Layer
      value: 3
      objectReference: {fileID: 0}
    - target: {fileID: 194793575261698536, guid: cfe992e4e630a984e8c5afd2e3b26f65,
        type: 3}
      propertyPath: m_Layer
      value: 3
      objectReference: {fileID: 0}
    - target: {fileID: 441414255597750876, guid: cfe992e4e630a984e8c5afd2e3b26f65,
        type: 3}
      propertyPath: m_Layer
      value: 3
      objectReference: {fileID: 0}
    - target: {fileID: 919132149155446097, guid: cfe992e4e630a984e8c5afd2e3b26f65,
        type: 3}
      propertyPath: m_Name
      value: azhe_TrainGuard
      objectReference: {fileID: 0}
    - target: {fileID: 919132149155446097, guid: cfe992e4e630a984e8c5afd2e3b26f65,
        type: 3}
      propertyPath: m_Layer
      value: 3
      objectReference: {fileID: 0}
    - target: {fileID: 1211580404275289277, guid: cfe992e4e630a984e8c5afd2e3b26f65,
        type: 3}
      propertyPath: m_Layer
      value: 3
      objectReference: {fileID: 0}
    - target: {fileID: 1220092126623623018, guid: cfe992e4e630a984e8c5afd2e3b26f65,
        type: 3}
      propertyPath: m_Layer
      value: 3
      objectReference: {fileID: 0}
    - target: {fileID: 1478381138036749047, guid: cfe992e4e630a984e8c5afd2e3b26f65,
        type: 3}
      propertyPath: m_Layer
      value: 3
      objectReference: {fileID: 0}
    - target: {fileID: 1617048992373897728, guid: cfe992e4e630a984e8c5afd2e3b26f65,
        type: 3}
      propertyPath: m_Layer
      value: 3
      objectReference: {fileID: 0}
    - target: {fileID: 2046054943601726698, guid: cfe992e4e630a984e8c5afd2e3b26f65,
        type: 3}
      propertyPath: m_Layer
      value: 3
      objectReference: {fileID: 0}
    - target: {fileID: 2409756500920119366, guid: cfe992e4e630a984e8c5afd2e3b26f65,
        type: 3}
      propertyPath: m_Layer
      value: 3
      objectReference: {fileID: 0}
    - target: {fileID: 2584942234464478672, guid: cfe992e4e630a984e8c5afd2e3b26f65,
        type: 3}
      propertyPath: m_Layer
      value: 3
      objectReference: {fileID: 0}
    - target: {fileID: 2990469640361832759, guid: cfe992e4e630a984e8c5afd2e3b26f65,
        type: 3}
      propertyPath: m_Layer
      value: 3
      objectReference: {fileID: 0}
    - target: {fileID: 3078324153522953174, guid: cfe992e4e630a984e8c5afd2e3b26f65,
        type: 3}
      propertyPath: m_Layer
      value: 3
      objectReference: {fileID: 0}
    - target: {fileID: 4775428508133318212, guid: cfe992e4e630a984e8c5afd2e3b26f65,
        type: 3}
      propertyPath: m_Layer
      value: 3
      objectReference: {fileID: 0}
    - target: {fileID: 5344939336247838130, guid: cfe992e4e630a984e8c5afd2e3b26f65,
        type: 3}
      propertyPath: m_Layer
      value: 3
      objectReference: {fileID: 0}
    - target: {fileID: 6095166829589121666, guid: cfe992e4e630a984e8c5afd2e3b26f65,
        type: 3}
      propertyPath: m_Layer
      value: 3
      objectReference: {fileID: 0}
    - target: {fileID: 6258840396613682129, guid: cfe992e4e630a984e8c5afd2e3b26f65,
        type: 3}
      propertyPath: m_Layer
      value: 3
      objectReference: {fileID: 0}
    - target: {fileID: 6638817378431544544, guid: cfe992e4e630a984e8c5afd2e3b26f65,
        type: 3}
      propertyPath: m_Layer
      value: 3
      objectReference: {fileID: 0}
    - target: {fileID: 7027053747465191912, guid: cfe992e4e630a984e8c5afd2e3b26f65,
        type: 3}
      propertyPath: m_Layer
      value: 3
      objectReference: {fileID: 0}
    - target: {fileID: 7054254788579830396, guid: cfe992e4e630a984e8c5afd2e3b26f65,
        type: 3}
      propertyPath: m_Layer
      value: 3
      objectReference: {fileID: 0}
    - target: {fileID: 7157309607397930224, guid: cfe992e4e630a984e8c5afd2e3b26f65,
        type: 3}
      propertyPath: m_Layer
      value: 3
      objectReference: {fileID: 0}
    - target: {fileID: 8024992040538387460, guid: cfe992e4e630a984e8c5afd2e3b26f65,
        type: 3}
      propertyPath: m_Layer
      value: 3
      objectReference: {fileID: 0}
    - target: {fileID: 8353672205984177229, guid: cfe992e4e630a984e8c5afd2e3b26f65,
        type: 3}
      propertyPath: m_Layer
      value: 3
      objectReference: {fileID: 0}
    - target: {fileID: 8568900376933055577, guid: cfe992e4e630a984e8c5afd2e3b26f65,
        type: 3}
      propertyPath: m_Layer
      value: 3
      objectReference: {fileID: 0}
    - target: {fileID: 8808946834159684269, guid: cfe992e4e630a984e8c5afd2e3b26f65,
        type: 3}
      propertyPath: m_Layer
      value: 3
      objectReference: {fileID: 0}
    m_RemovedComponents: []
    m_RemovedGameObjects: []
    m_AddedGameObjects: []
    m_AddedComponents:
    - targetCorrespondingSourceObject: {fileID: 919132149155446097, guid: cfe992e4e630a984e8c5afd2e3b26f65,
        type: 3}
      insertIndex: -1
      addedObject: {fileID: 5697637559505331127}
    - targetCorrespondingSourceObject: {fileID: 919132149155446097, guid: cfe992e4e630a984e8c5afd2e3b26f65,
        type: 3}
      insertIndex: -1
      addedObject: {fileID: 3185862080694848248}
    - targetCorrespondingSourceObject: {fileID: 919132149155446097, guid: cfe992e4e630a984e8c5afd2e3b26f65,
        type: 3}
      insertIndex: -1
      addedObject: {fileID: 639766513634525809}
  m_SourcePrefab: {fileID: 100100000, guid: cfe992e4e630a984e8c5afd2e3b26f65, type: 3}
--- !u!1 &7233118175490873098 stripped
GameObject:
  m_CorrespondingSourceObject: {fileID: 919132149155446097, guid: cfe992e4e630a984e8c5afd2e3b26f65,
    type: 3}
  m_PrefabInstance: {fileID: 7539126353757678171}
  m_PrefabAsset: {fileID: 0}
--- !u!210 &5697637559505331127
SortingGroup:
  m_ObjectHideFlags: 0
  m_CorrespondingSourceObject: {fileID: 0}
  m_PrefabInstance: {fileID: 0}
  m_PrefabAsset: {fileID: 0}
  m_GameObject: {fileID: 7233118175490873098}
  m_Enabled: 1
  m_SortingLayerID: 0
  m_SortingLayer: 0
  m_SortingOrder: 100
  m_SortAtRoot: 0
--- !u!195 &3185862080694848248
NavMeshAgent:
  m_ObjectHideFlags: 0
  m_CorrespondingSourceObject: {fileID: 0}
  m_PrefabInstance: {fileID: 0}
  m_PrefabAsset: {fileID: 0}
  m_GameObject: {fileID: 7233118175490873098}
  m_Enabled: 1
  m_AgentTypeID: 0
  m_Radius: 0.5
  m_Speed: 3.5
  m_Acceleration: 8
  avoidancePriority: 0
  m_AngularSpeed: 120
  m_StoppingDistance: 0
  m_AutoTraverseOffMeshLink: 1
  m_AutoBraking: 1
  m_AutoRepath: 1
  m_Height: 2
  m_BaseOffset: -0.08
  m_WalkableMask: 4294967295
  m_ObstacleAvoidanceType: 0
--- !u!65 &639766513634525809
BoxCollider:
  m_ObjectHideFlags: 0
  m_CorrespondingSourceObject: {fileID: 0}
  m_PrefabInstance: {fileID: 0}
  m_PrefabAsset: {fileID: 0}
  m_GameObject: {fileID: 7233118175490873098}
  m_Material: {fileID: 0}
  m_IncludeLayers:
    serializedVersion: 2
    m_Bits: 0
  m_ExcludeLayers:
    serializedVersion: 2
    m_Bits: 0
  m_LayerOverridePriority: 0
  m_IsTrigger: 0
  m_ProvidesContacts: 0
  m_Enabled: 1
  serializedVersion: 3
  m_Size: {x: 1, y: 1.99, z: 1}
  m_Center: {x: 0, y: 1, z: 0}
