%YAML 1.1
%TAG !u! tag:unity3d.com,2011:
--- !u!114 &11400000
MonoBehaviour:
  m_ObjectHideFlags: 0
  m_CorrespondingSourceObject: {fileID: 0}
  m_PrefabInstance: {fileID: 0}
  m_PrefabAsset: {fileID: 0}
  m_GameObject: {fileID: 0}
  m_Enabled: 1
  m_EditorHideFlags: 0
  m_Script: {fileID: 11500000, guid: f7942113f734dd744aaef0082ecda9fa, type: 3}
  m_Name: ItemIconContainer
  m_EditorClassIdentifier: 
  sprAccessory: {fileID: -1705220290, guid: 51821cbd35ae7df47baa12703d1eac4a, type: 3}
  sprArmor: {fileID: -373941400, guid: 51821cbd35ae7df47baa12703d1eac4a, type: 3}
  sprGeneric: {fileID: 568464995, guid: 51821cbd35ae7df47baa12703d1eac4a, type: 3}
  sprGlove: {fileID: -1153743130, guid: 51821cbd35ae7df47baa12703d1eac4a, type: 3}
  sprGun: {fileID: -1521980659, guid: 51821cbd35ae7df47baa12703d1eac4a, type: 3}
  sprGunArm: {fileID: 194516603, guid: 51821cbd35ae7df47baa12703d1eac4a, type: 3}
  sprHeaddress: {fileID: 1644509108, guid: 51821cbd35ae7df47baa12703d1eac4a, type: 3}
  sprMegaphone: {fileID: 1858249979, guid: 51821cbd35ae7df47baa12703d1eac4a, type: 3}
  sprShuriken: {fileID: 782149139, guid: 51821cbd35ae7df47baa12703d1eac4a, type: 3}
  sprSpear: {fileID: -1264654898, guid: 51821cbd35ae7df47baa12703d1eac4a, type: 3}
  sprStaff: {fileID: 1110950707, guid: 51821cbd35ae7df47baa12703d1eac4a, type: 3}
  sprSword: {fileID: 909037946, guid: 51821cbd35ae7df47baa12703d1eac4a, type: 3}
  sprMateriaYellow: {fileID: 2030633404, guid: 014052e2b5d7e6346b81e0dc83089560, type: 3}
  sprMateriaMagenta: {fileID: -1611275684, guid: 014052e2b5d7e6346b81e0dc83089560,
    type: 3}
  sprMateriaGreen: {fileID: -2064190778, guid: 014052e2b5d7e6346b81e0dc83089560, type: 3}
  sprMateriaRed: {fileID: -1072103831, guid: 014052e2b5d7e6346b81e0dc83089560, type: 3}
  sprMateriaBlue: {fileID: 435967443, guid: 014052e2b5d7e6346b81e0dc83089560, type: 3}
  sprSlotNoGrowth: {fileID: -1128798932, guid: 87ef605871d9df94f8210e1c679d7f9e, type: 3}
  sprSlotNormal: {fileID: 38149174, guid: 87ef605871d9df94f8210e1c679d7f9e, type: 3}
  starsMagic:
    sprStarInactive: {fileID: 1788205432, guid: 51821cbd35ae7df47baa12703d1eac4a,
      type: 3}
    sprStarActive: {fileID: -194966110, guid: 51821cbd35ae7df47baa12703d1eac4a, type: 3}
  starsSupport:
    sprStarInactive: {fileID: 1054454824, guid: 51821cbd35ae7df47baa12703d1eac4a,
      type: 3}
    sprStarActive: {fileID: -1671350796, guid: 51821cbd35ae7df47baa12703d1eac4a, type: 3}
  starsCommand:
    sprStarInactive: {fileID: -915455652, guid: 51821cbd35ae7df47baa12703d1eac4a,
      type: 3}
    sprStarActive: {fileID: 1331486168, guid: 51821cbd35ae7df47baa12703d1eac4a, type: 3}
  starsIndependent:
    sprStarInactive: {fileID: 259857213, guid: 51821cbd35ae7df47baa12703d1eac4a, type: 3}
    sprStarActive: {fileID: 512254961, guid: 51821cbd35ae7df47baa12703d1eac4a, type: 3}
  starsSummon:
    sprStarInactive: {fileID: 2140699236, guid: 51821cbd35ae7df47baa12703d1eac4a,
      type: 3}
    sprStarActive: {fileID: 769413814, guid: 51821cbd35ae7df47baa12703d1eac4a, type: 3}
